[
  {
    "model": "paymentapi.businessaccount",
    "pk": 1,
    "fields": {
      "account_number": 111,
      "account_name": "XYZ",
      "status": "active",
      "account_balance": 10000000000.00,
      "created_at": "2019-01-01 00:00:00",
      "updated_at": "2019-01-01 00:00:00"
    }
  }
]
